joining-data-with-dplyr – KIND training pages
…
left_join(): includes all rows in x.

right_join(): includes all rows in y.

full_join(): includes all rows in x or y.

anti_join(): includes all rows in x that are not in y.

If a row in x matches multiple rows in y, all the rows in y will be returned once for each matching row in x.

cross_join()

cross_join() creates all possible combinations (the Cartesian product) of two datasets. If we have m rows in one, and n rows in another, our cross join will have m * n rows.

# A tibble: 25 × 6
   category.x value.x key.x category.y value.y key.y
   <chr>        <dbl> <dbl> <chr>        <dbl> <dbl>
 1 x                5     3 y                2     5
 2 x                5     3 y                7     2
 3 x                5     3 y                3     2
 4 x                5     3 y                2     8
 5 x                5     3 y                2    14
 6 x                2     7 y                2     5
 7 x                2     7 y                7     2
 8 x                2     7 y                3     2
 9 x                2     7 y                2     8
10 x                2     7 y                2    14
# ℹ 15 more rows
…
