Data masking in R – KIND training pages
…
Data masking cheatsheet 

library(NHSRdatasets)
library(dplyr)
library(purrr)
library(ggplot2)

Introduction

More so than in other programming languages, R functions bias towards helping the user do common tasks easily. One excellent example is the way that tidyverse functions (like dplyr) make assumptions about what users mean when they refer to variables. As an example:

stranded_data |> 
  select(age) 

# A tibble: 768 × 1
     age
   <int>
 1    50
 2    31
 3    32
 4    69
 5    33
 6    75
 7    26
 8    64
 9    53
10    63
# ℹ 758 more rows

When we specify the age column in this select function, we don’t need to tell R that we specifically mean the age column in the stranded_data tibble. That’s very helpful, because it saves us having to specify that we want to refer to a specific column in a specific tibble each time we write a line of dplyr. Even if we create another tibble that also has an age column…

new_stranded_data <- stranded_data |>
  select(stranded.label, age)

… we can still just refer to the age column of the original stranded_data without any risk of confusion. This simplification - which we’ll call data masking - is a great advantage of using the pipe, and most of the time data masking just works without giving rise to any problems at all. For example, we can write a vector of column names, and then pass it to select(), and R will figure out that we want to use those names as column names without any extra effort on our part:

my_cols <- c("age", "care.home.referral", "medicallysafe")

stranded_data |>
  select(any_of(my_cols))

# A tibble: 768 × 3
     age care.home.referral medicallysafe
   <int>              <int>         <int>
 1    50                  0             0
 2    31                  1             0
 3    32                  0             1
 4    69                  1             1
 5    33                  0             0
 6    75                  1             1
 7    26                  1             0
 8    64                  0             1
 9    53                  0             1
10    63                  1             0
# ℹ 758 more rows
…
If we try to use this column_displayer() function in the normal way, we’ll receive an error:

try(column_displayer(age))

Error in select(stranded_data, any_of(col_name)) : 
  ℹ In argument: `any_of(col_name)`.
Caused by error:
! object 'age' not found

Okay, so we can dodge this error in this case by quoting the column name when we supply it as an argument:

column_displayer("age")

# A tibble: 768 × 1
     age
   <int>
 1    50
 2    31
 3    32
 4    69
 5    33
 6    75
 7    26
 8    64
 9    53
10    63
# ℹ 758 more rows
…
# A tibble: 0 × 6
# ℹ 6 variables: period <date>, org_code <fct>, type <fct>, attendances <dbl>,
#   breaches <dbl>, admissions <dbl>

(this is based on an actual problem I manufactured for myself while writing the functions training)

This gives an unexpected result, because there are definitely cases where we have more than 800 breaches. In fact we have something like 3598 cases with more than 800 breaches. And what’s going on here is that there’s an ambiguity - which attendances do we mean? This is where pronouns come in, by allowing us to be precise about where the variable is coming from:

ae_attendances |>
  filter(.data[["breaches"]] >= .env[["attendances"]]) |> 
  arrange(breaches) 

# A tibble: 3,598 × 6
   period     org_code type  attendances breaches admissions
   <date>     <fct>    <fct>       <dbl>    <dbl>      <dbl>
 1 2016-04-01 RLT      1            5691      800       1023
 2 2017-10-01 RYR      1           11741      800       3395
 3 2018-01-01 RC1      1            6162      802       2121
 4 2018-01-01 RR7      1            7269      802       1810
 5 2019-02-01 RQX      1            9955      802       1493
 6 2017-07-01 RWW      1            7094      803       2620
 7 2019-03-01 RBZ      1            3925      803       1104
 8 2016-10-01 RJN      1            4234      805        978
 9 2018-08-01 RNQ      1            7495      805       2596
10 2016-10-01 RGR      1            5814      806       2017
# ℹ 3,588 more rows
…
# A tibble: 3 × 2
  type  mean_attendances
  <fct>            <dbl>
1 1                9391.
2 2                1549.
3 other            3575.

Similar injections can be applied across a range of dplyr functions. We’ll demonstrate these below using a vector containing the new column name, but injection is most useful when included as part of a function that you might want to apply across several different aspects of your data:

new_column_name <- c("Steve")

ae_attendances |> 
  mutate("{new_column_name}" := round(attendances ^ 0.5, 2) )

# A tibble: 12,765 × 7
   period     org_code type  attendances breaches admissions Steve
   <date>     <fct>    <fct>       <dbl>    <dbl>      <dbl> <dbl>
 1 2017-03-01 RF4      1           21289     2879       5060 146. 
 2 2017-03-01 RF4      2             813       22          0  28.5
 3 2017-03-01 RF4      other        2850        6          0  53.4
 4 2017-03-01 R1H      1           30210     5902       6943 174. 
 5 2017-03-01 R1H      2             807       11          0  28.4
 6 2017-03-01 R1H      other       11352      136          0 107. 
 7 2017-03-01 AD913    other        4381        2          0  66.2
 8 2017-03-01 RYX      other       19562      258          0 140. 
 9 2017-03-01 RQM      1           17414     2030       3597 132. 
10 2017-03-01 RQM      other        7817       86          0  88.4
# ℹ 12,755 more rows

ae_attendances |> 
  rename("{new_column_name}" := attendances) 

# A tibble: 12,765 × 6
   period     org_code type  Steve breaches admissions
   <date>     <fct>    <fct> <dbl>    <dbl>      <dbl>
 1 2017-03-01 RF4      1     21289     2879       5060
 2 2017-03-01 RF4      2       813       22          0
 3 2017-03-01 RF4      other  2850        6          0
 4 2017-03-01 R1H      1     30210     5902       6943
 5 2017-03-01 R1H      2       807       11          0
 6 2017-03-01 R1H      other 11352      136          0
 7 2017-03-01 AD913    other  4381        2          0
 8 2017-03-01 RYX      other 19562      258          0
 9 2017-03-01 RQM      1     17414     2030       3597
10 2017-03-01 RQM      other  7817       86          0
# ℹ 12,755 more rows
…
Quasiquotation

Informally, the := operator that we explored in the previous subsection functions behaved as if it were adding quotes around the variable that was passed to it. That meant that we could pass a quoted variable to a function, and yet return the result as expected:

quoted_variable <- "Steve"

ae_attendances |> 
  rename("{quoted_variable}" := attendances) 

# A tibble: 12,765 × 6
   period     org_code type  Steve breaches admissions
   <date>     <fct>    <fct> <dbl>    <dbl>      <dbl>
 1 2017-03-01 RF4      1     21289     2879       5060
 2 2017-03-01 RF4      2       813       22          0
 3 2017-03-01 RF4      other  2850        6          0
 4 2017-03-01 R1H      1     30210     5902       6943
 5 2017-03-01 R1H      2       807       11          0
 6 2017-03-01 R1H      other 11352      136          0
 7 2017-03-01 AD913    other  4381        2          0
 8 2017-03-01 RYX      other 19562      258          0
 9 2017-03-01 RQM      1     17414     2030       3597
10 2017-03-01 RQM      other  7817       86          0
# ℹ 12,755 more rows

What if we also need to use this variable in an unquoted way? For example, say we now want to use select() to pick out our Steve column?

In a function where an argument is supplied quoted, you can unquote it with !!:

ae_attendances |> 
  rename("{quoted_variable}" := attendances) |>
  select(!!quoted_variable) 

# A tibble: 12,765 × 1
   Steve
   <dbl>
 1 21289
 2   813
 3  2850
 4 30210
 5   807
 6 11352
 7  4381
 8 19562
 9 17414
10  7817
# ℹ 12,755 more rows
…
distinct_entries <- function(df, col_name){
  
  cat(glue::glue("#### Results for {col_name}:  \n  \n")) # using glue syntax
  
  df |> 
    select(!!sym(col_name)) |> # using quasiquotation to select the supplied column
    rename("distinct_{col_name}" := col_name) |> # using injection to rename the column
    distinct() 
}

distinct_entries(ae_attendances, "org_code")

#### Results for org_code:  

# A tibble: 274 × 1
   distinct_org_code
   <fct>            
 1 RF4              
 2 R1H              
 3 AD913            
 4 RYX              
 5 RQM              
 6 RJ6              
 7 Y02696           
 8 NX122            
 9 RVR              
10 RJ1              
# ℹ 264 more rows
