Exploring data with dplyr – KIND training pages
…
# A tibble: 1 × 6
  period     org_code type  attendances breaches admissions
  <date>     <fct>    <fct>       <dbl>    <dbl>      <dbl>
1 2019-01-01 RRK      1           31935    12502      11493

(note that you need to explicitly name the number of rows you want using n=...)

slice_min() and slice_max() are particularly useful for groups:

ae_attendances |>
  filter(type == "1") |>
  group_by(org_code) |>
  slice_max(breaches, n=1) 

# A tibble: 140 × 6
# Groups:   org_code [140]
   period     org_code type  attendances breaches admissions
   <date>     <fct>    <fct>       <dbl>    <dbl>      <dbl>
 1 2019-01-01 R0A      1           21980     6206       6985
 2 2018-11-01 R1F      1            3810     1262        967
 3 2017-01-01 R1H      1           28420     7426       6435
 4 2017-01-01 R1K      1           11961     5897       4587
 5 2019-01-01 RA2      1            6242     1071       2513
 6 2017-01-01 RA3      1            4073     1471       1074
 7 2016-06-01 RA4      1            3992      454       1057
 8 2016-11-01 RA7      1            9625     2445       3064
 9 2019-01-01 RA9      1            6056     2053       2557
10 2019-03-01 RAE      1           10698     3438       2854
# ℹ 130 more rows
…
rename() (and rename_with())

rename() renames columns. Like mutate(), the general syntax for rename() is new name = old name.

LOS_model |>
  rename(age = Age) 

# A tibble: 300 × 5
      ID Organisation   age   LOS Death
   <int> <ord>        <int> <int> <int>
 1     1 Trust1          55     2     0
 2     2 Trust2          27     1     0
 3     3 Trust3          93    12     0
 4     4 Trust4          45     3     1
 5     5 Trust5          70    11     0
 6     6 Trust6          60     7     0
 7     7 Trust7          25     4     0
 8     8 Trust8          48     4     0
 9     9 Trust9          51     7     1
10    10 Trust10         81     1     0
# ℹ 290 more rows

There’s not much more to say about the basic rename() function beyond that. However, the scoped variants, rename_with() and rename_all() provide some useful additional tools. For example, we can use tolower() - which converts strings to all lower-case - to rename multiple columns at once:

LOS_model |> 
  rename_with(tolower) 

# A tibble: 300 × 5
      id organisation   age   los death
   <int> <ord>        <int> <int> <int>
 1     1 Trust1          55     2     0
 2     2 Trust2          27     1     0
 3     3 Trust3          93    12     0
 4     4 Trust4          45     3     1
 5     5 Trust5          70    11     0
 6     6 Trust6          60     7     0
 7     7 Trust7          25     4     0
 8     8 Trust8          48     4     0
 9     9 Trust9          51     7     1
10    10 Trust10         81     1     0
# ℹ 290 more rows

rename() works well with tidyselect operators too, as we discuss in that session.

relocate()

relocate() re-arranges the order of columns:

LOS_model 

# A tibble: 300 × 5
      ID Organisation   Age   LOS Death
   <int> <ord>        <int> <int> <int>
 1     1 Trust1          55     2     0
 2     2 Trust2          27     1     0
 3     3 Trust3          93    12     0
 4     4 Trust4          45     3     1
 5     5 Trust5          70    11     0
 6     6 Trust6          60     7     0
 7     7 Trust7          25     4     0
 8     8 Trust8          48     4     0
 9     9 Trust9          51     7     1
10    10 Trust10         81     1     0
# ℹ 290 more rows

relocate()’s default behaviour is to move specified columns to the far left:

LOS_model |>
  relocate(LOS) 

# A tibble: 300 × 5
     LOS    ID Organisation   Age Death
   <int> <int> <ord>        <int> <int>
 1     2     1 Trust1          55     0
 2     1     2 Trust2          27     0
 3    12     3 Trust3          93     0
 4     3     4 Trust4          45     1
 5    11     5 Trust5          70     0
 6     7     6 Trust6          60     0
 7     4     7 Trust7          25     0
 8     4     8 Trust8          48     0
 9     7     9 Trust9          51     1
10     1    10 Trust10         81     0
# ℹ 290 more rows

You can specify .before and .after if you need finer control over where your column ends up:

LOS_model |>
  relocate(LOS, .after=Death)

# A tibble: 300 × 5
      ID Organisation   Age Death   LOS
   <int> <ord>        <int> <int> <int>
 1     1 Trust1          55     0     2
 2     2 Trust2          27     0     1
 3     3 Trust3          93     0    12
 4     4 Trust4          45     1     3
 5     5 Trust5          70     0    11
 6     6 Trust6          60     0     7
 7     7 Trust7          25     0     4
 8     8 Trust8          48     0     4
 9     9 Trust9          51     1     7
10    10 Trust10         81     0     1
# ℹ 290 more rows

LOS_model |>
  relocate(Death, .before=last_col()) # little bit of tidyselect

# A tibble: 300 × 5
      ID Organisation   Age   LOS Death
   <int> <ord>        <int> <int> <int>
 1     1 Trust1          55     2     0
 2     2 Trust2          27     1     0
 3     3 Trust3          93    12     0
 4     4 Trust4          45     3     1
 5     5 Trust5          70    11     0
 6     6 Trust6          60     7     0
 7     7 Trust7          25     4     0
 8     8 Trust8          48     4     0
 9     9 Trust9          51     7     1
10    10 Trust10         81     1     0
# ℹ 290 more rows
…
Winter (metrological winter, for clarity) runs from the start of December to the end of February. Can we class the total deaths into winter, and non-winter categories? In practice, I’d be tempted to use lubridate::quarter() with an appropriate starting offset for this kind of work if possible, especially if I was grouping into regular groups. Winter/non-winter isn’t regular though, so case_when() is the better option. Here, we’ll work in stages. First, as we’ll need the months, we’ll extract those using lubridate::month():

ons_mortality |>
  filter(category_1 == "Total deaths") |>
  mutate(month = lubridate::month(date))

# A tibble: 1,056 × 6
   category_1   category_2 counts date       week_no month
   <chr>        <chr>       <dbl> <date>       <int> <dbl>
 1 Total deaths all ages    12968 2010-01-08       1     1
 2 Total deaths all ages    12541 2010-01-15       2     1
 3 Total deaths all ages    11762 2010-01-22       3     1
 4 Total deaths all ages    11056 2010-01-29       4     1
 5 Total deaths all ages    10524 2010-02-05       5     2
 6 Total deaths all ages    10117 2010-02-12       6     2
 7 Total deaths all ages    10102 2010-02-19       7     2
 8 Total deaths all ages    10295 2010-02-26       8     2
 9 Total deaths all ages     9981 2010-03-05       9     3
10 Total deaths all ages     9792 2010-03-12      10     3
# ℹ 1,046 more rows

Our definition of winter is any case where that month is 1, 2, or 12. So use case_when() to catch Jan and Feb:

ons_mortality |>
  filter(category_1 == "Total deaths") |>
  mutate(month = lubridate::month(date)) |>
  mutate(thing = case_when(month < 3 ~ "Winter"))

# A tibble: 1,056 × 7
   category_1   category_2 counts date       week_no month thing 
   <chr>        <chr>       <dbl> <date>       <int> <dbl> <chr> 
 1 Total deaths all ages    12968 2010-01-08       1     1 Winter
 2 Total deaths all ages    12541 2010-01-15       2     1 Winter
 3 Total deaths all ages    11762 2010-01-22       3     1 Winter
 4 Total deaths all ages    11056 2010-01-29       4     1 Winter
 5 Total deaths all ages    10524 2010-02-05       5     2 Winter
 6 Total deaths all ages    10117 2010-02-12       6     2 Winter
 7 Total deaths all ages    10102 2010-02-19       7     2 Winter
 8 Total deaths all ages    10295 2010-02-26       8     2 Winter
 9 Total deaths all ages     9981 2010-03-05       9     3 <NA>  
10 Total deaths all ages     9792 2010-03-12      10     3 <NA>  
# ℹ 1,046 more rows

and then add an extra case to deal with December:

ons_mortality |>
  filter(category_1 == "Total deaths") |>
  mutate(month = lubridate::month(date)) |>
  mutate(season = case_when(month < 3 ~ "Winter",
                           month == 12 ~ "Winter"))

# A tibble: 1,056 × 7
   category_1   category_2 counts date       week_no month season
   <chr>        <chr>       <dbl> <date>       <int> <dbl> <chr> 
 1 Total deaths all ages    12968 2010-01-08       1     1 Winter
 2 Total deaths all ages    12541 2010-01-15       2     1 Winter
 3 Total deaths all ages    11762 2010-01-22       3     1 Winter
 4 Total deaths all ages    11056 2010-01-29       4     1 Winter
 5 Total deaths all ages    10524 2010-02-05       5     2 Winter
 6 Total deaths all ages    10117 2010-02-12       6     2 Winter
 7 Total deaths all ages    10102 2010-02-19       7     2 Winter
 8 Total deaths all ages    10295 2010-02-26       8     2 Winter
 9 Total deaths all ages     9981 2010-03-05       9     3 <NA>  
10 Total deaths all ages     9792 2010-03-12      10     3 <NA>  
# ℹ 1,046 more rows

And finally a default to catch all the non-Winter values:

seasonal_ons_mortality <- ons_mortality |>
  filter(category_1 == "Total deaths") |>
  mutate(month = lubridate::month(date)) |>
  mutate(season = case_when(month < 3 ~ "Winter",
                           month == 12 ~ "Winter",
                           TRUE ~ "Not winter"))
seasonal_ons_mortality

# A tibble: 1,056 × 7
   category_1   category_2 counts date       week_no month season    
   <chr>        <chr>       <dbl> <date>       <int> <dbl> <chr>     
 1 Total deaths all ages    12968 2010-01-08       1     1 Winter    
 2 Total deaths all ages    12541 2010-01-15       2     1 Winter    
 3 Total deaths all ages    11762 2010-01-22       3     1 Winter    
 4 Total deaths all ages    11056 2010-01-29       4     1 Winter    
 5 Total deaths all ages    10524 2010-02-05       5     2 Winter    
 6 Total deaths all ages    10117 2010-02-12       6     2 Winter    
 7 Total deaths all ages    10102 2010-02-19       7     2 Winter    
 8 Total deaths all ages    10295 2010-02-26       8     2 Winter    
 9 Total deaths all ages     9981 2010-03-05       9     3 Not winter
10 Total deaths all ages     9792 2010-03-12      10     3 Not winter
# ℹ 1,046 more rows
…
case_match()

Rather than a logical test, case_match() matches against values rather than performing a logical test. This is excellent for the winter classification example:

ons_mortality |>
  filter(category_1 == "Total deaths") |>
  mutate(month = lubridate::month(date)) |>
  mutate(season = case_match(month, c(1, 2, 12) ~ "Winter",
                             .default = "Not winter"))

# A tibble: 1,056 × 7
   category_1   category_2 counts date       week_no month season    
   <chr>        <chr>       <dbl> <date>       <int> <dbl> <chr>     
 1 Total deaths all ages    12968 2010-01-08       1     1 Winter    
 2 Total deaths all ages    12541 2010-01-15       2     1 Winter    
 3 Total deaths all ages    11762 2010-01-22       3     1 Winter    
 4 Total deaths all ages    11056 2010-01-29       4     1 Winter    
 5 Total deaths all ages    10524 2010-02-05       5     2 Winter    
 6 Total deaths all ages    10117 2010-02-12       6     2 Winter    
 7 Total deaths all ages    10102 2010-02-19       7     2 Winter    
 8 Total deaths all ages    10295 2010-02-26       8     2 Winter    
 9 Total deaths all ages     9981 2010-03-05       9     3 Not winter
10 Total deaths all ages     9792 2010-03-12      10     3 Not winter
# ℹ 1,046 more rows
…
