An introduction to data.table – KIND training pages
…
tb |> 
  select(month)

# A tibble: 253,316 × 1
   month
   <dbl>
 1     1
 2     1
 3     1
 4     1
 5     1
 6     1
 7     1
 8     1
 9     1
10     1
# ℹ 253,306 more rows
…
tb |>
  select(day, month, year)

# A tibble: 253,316 × 3
     day month  year
   <dbl> <dbl> <dbl>
 1     1     1  2014
 2     1     1  2014
 3     1     1  2014
 4     1     1  2014
 5     1     1  2014
 6     1     1  2014
 7     1     1  2014
 8     1     1  2014
 9     1     1  2014
10     1     1  2014
# ℹ 253,306 more rows
…
tb |>
  filter(dest == "LAX")

# A tibble: 14,434 × 11
    year month   day dep_delay arr_delay carrier origin dest  air_time distance
   <dbl> <dbl> <dbl>     <dbl>     <dbl> <chr>   <chr>  <chr>    <dbl>    <dbl>
 1  2014     1     1        14        13 AA      JFK    LAX        359     2475
 2  2014     1     1        -3        13 AA      JFK    LAX        363     2475
 3  2014     1     1         2         9 AA      JFK    LAX        351     2475
 4  2014     1     1         2         1 AA      JFK    LAX        350     2475
 5  2014     1     1         4         0 AA      EWR    LAX        339     2454
 6  2014     1     1        -2       -18 AA      JFK    LAX        338     2475
 7  2014     1     1        -3       -14 AA      JFK    LAX        356     2475
 8  2014     1     1       142       133 AA      JFK    LAX        345     2475
 9  2014     1     1        -4        11 B6      JFK    LAX        349     2475
10  2014     1     1         3       -10 B6      JFK    LAX        349     2475
# ℹ 14,424 more rows
# ℹ 1 more variable: hour <dbl>
…
tb |>
  group_by(carrier) |>
  summarise(mean(hour))

# A tibble: 14 × 2
   carrier `mean(hour)`
   <chr>          <dbl>
 1 AA             12.4 
 2 AS             12.9 
 3 B6             13.4 
 4 DL             13.0 
 5 EV             13.5 
 6 F9             13.5 
 7 FL             14.3 
 8 HA              9.12
 9 MQ             13.8 
10 OO             10.7 
11 UA             13.0 
12 US             12.1 
13 VX             12.3 
14 WN             12.7 

dt[,mean(hour), carrier]

    carrier        V1
     <char>     <num>
 1:      AA 12.389590
 2:      AS 12.881533
 3:      B6 13.430518
 4:      DL 13.007605
 5:      EV 13.535121
 6:      F9 13.534884
 7:      FL 14.270184
 8:      HA  9.115385
 9:      MQ 13.750849
10:      VX 12.322493
11:      WN 12.696354
 [ reached 'max' / getOption("max.print") -- omitted 3 rows ]
…
tb |>
  filter(month == 9) |>
  group_by(carrier) |>
  summarise(sum = sum(distance))

# A tibble: 13 × 2
   carrier     sum
   <chr>     <dbl>
 1 AA      3687744
 2 AS       144120
 3 B6      4613124
 4 DL      5094885
 5 EV      2386348
 6 F9        90720
 7 HA       124575
 8 MQ       906560
 9 OO        35184
10 UA      7109454
11 US       906256
12 VX      1218951
13 WN      1297176

dt[month == 9, sum(distance), carrier]

    carrier      V1
     <char>   <int>
 1:      AA 3687744
 2:      AS  144120
 3:      B6 4613124
 4:      DL 5094885
 5:      VX 1218951
 6:      WN 1297176
 7:      EV 2386348
 8:      F9   90720
 9:      HA  124575
10:      MQ  906560
11:      OO   35184
 [ reached 'max' / getOption("max.print") -- omitted 2 rows ]
…
tb |>
  arrange(dep_delay)

# A tibble: 253,316 × 11
    year month   day dep_delay arr_delay carrier origin dest  air_time distance
   <dbl> <dbl> <dbl>     <dbl>     <dbl> <chr>   <chr>  <chr>    <dbl>    <dbl>
 1  2014     1    21      -112      -112 DL      LGA    MSP        153     1020
 2  2014     4     1       -34       -40 DL      JFK    SJU        192     1598
 3  2014     1     9       -27        18 AA      EWR    LAX        332     2454
 4  2014     2     2       -27       -42 EV      LGA    BGR         51      378
 5  2014     8    26       -25       -24 B6      LGA    FLL        134     1076
 6  2014     1    13       -24        -1 AA      EWR    DFW        229     1372
 7  2014     8    26       -24       -41 B6      EWR    MCO        123      937
 8  2014     8    31       -24       -30 B6      EWR    MCO        120      937
 9  2014    10    28       -24       -38 B6      EWR    FLL        142     1065
10  2014     1    14       -23       -24 EV      EWR    MHT         42      209
# ℹ 253,306 more rows
# ℹ 1 more variable: hour <dbl>
…
tb |>
  count(carrier)

# A tibble: 14 × 2
   carrier     n
   <chr>   <int>
 1 AA      26302
 2 AS        574
 3 B6      44479
 4 DL      41683
 5 EV      39819
 6 F9        473
 7 FL       1251
 8 HA        260
 9 MQ      18559
10 OO        200
11 UA      46267
12 US      16750
13 VX       4797
14 WN      11902

dt[, .(n = .N), by = carrier]

    carrier     n
     <char> <int>
 1:      AA 26302
 2:      AS   574
 3:      B6 44479
 4:      DL 41683
 5:      EV 39819
 6:      F9   473
 7:      FL  1251
 8:      HA   260
 9:      MQ 18559
10:      VX  4797
11:      WN 11902
 [ reached 'max' / getOption("max.print") -- omitted 3 rows ]
…
tb |>
  mutate(dist_km = distance * 1.6) |>
  select(dist_km, carrier, origin, dest)

# A tibble: 253,316 × 4
   dist_km carrier origin dest 
     <dbl> <chr>   <chr>  <chr>
 1   3960  AA      JFK    LAX  
 2   3960  AA      JFK    LAX  
 3   3960  AA      JFK    LAX  
 4   1656  AA      LGA    PBI  
 5   3960  AA      JFK    LAX  
 6   3926. AA      EWR    LAX  
 7   3960  AA      JFK    LAX  
 8   3960  AA      JFK    LAX  
 9   1742. AA      JFK    MIA  
10   3875. AA      JFK    SEA  
# ℹ 253,306 more rows
…
