R from scratch – KIND training pages
…
penguins

We need to install packages before we can use them. That only needs to be done once for your R setup. To illustrate, let’s install a package, called palmerpenguins, which contains some interesting data:

install.packages("palmerpenguins")

Once that package is installed, we can use the data (and functions) it contains by attaching them to our current script:

library(palmerpenguins)

Once we’ve done that, we’ll have several new items available to use. The most important here is the main penguins dataset:

penguins

# A tibble: 344 × 8
   species island    bill_length_mm bill_depth_mm flipper_length_mm body_mass_g
   <fct>   <fct>              <dbl>         <dbl>             <int>       <int>
 1 Adelie  Torgersen           39.1          18.7               181        3750
 2 Adelie  Torgersen           39.5          17.4               186        3800
 3 Adelie  Torgersen           40.3          18                 195        3250
 4 Adelie  Torgersen           NA            NA                  NA          NA
 5 Adelie  Torgersen           36.7          19.3               193        3450
 6 Adelie  Torgersen           39.3          20.6               190        3650
 7 Adelie  Torgersen           38.9          17.8               181        3625
 8 Adelie  Torgersen           39.2          19.6               195        4675
 9 Adelie  Torgersen           34.1          18.1               193        3475
10 Adelie  Torgersen           42            20.2               190        4250
# ℹ 334 more rows
# ℹ 2 more variables: sex <fct>, year <int>
…
[1] Adelie Adelie Adelie Adelie
Levels: Adelie Chinstrap Gentoo

penguins[["island"]][1:4] # just the first few, again

[1] Torgersen Torgersen Torgersen Torgersen
Levels: Biscoe Dream Torgersen

dplyr generally produces much easier-to-read code, especially when using the pipe to bring together lines of code:

penguins |>
  select(island) # pick out a column by providing a column name

# A tibble: 344 × 1
   island   
   <fct>    
 1 Torgersen
 2 Torgersen
 3 Torgersen
 4 Torgersen
 5 Torgersen
 6 Torgersen
 7 Torgersen
 8 Torgersen
 9 Torgersen
10 Torgersen
# ℹ 334 more rows

penguins |>
  select(-island) # remove a column

# A tibble: 344 × 7
   species bill_length_mm bill_depth_mm flipper_length_mm body_mass_g sex   
   <fct>            <dbl>         <dbl>             <int>       <int> <fct> 
 1 Adelie            39.1          18.7               181        3750 male  
 2 Adelie            39.5          17.4               186        3800 female
 3 Adelie            40.3          18                 195        3250 female
 4 Adelie            NA            NA                  NA          NA <NA>  
 5 Adelie            36.7          19.3               193        3450 female
 6 Adelie            39.3          20.6               190        3650 male  
 7 Adelie            38.9          17.8               181        3625 female
 8 Adelie            39.2          19.6               195        4675 male  
 9 Adelie            34.1          18.1               193        3475 <NA>  
10 Adelie            42            20.2               190        4250 <NA>  
# ℹ 334 more rows
# ℹ 1 more variable: year <int>

penguins |>
  select(species, flipper_length_mm, island) # select and re-order columns

# A tibble: 344 × 3
   species flipper_length_mm island   
   <fct>               <int> <fct>    
 1 Adelie                181 Torgersen
 2 Adelie                186 Torgersen
 3 Adelie                195 Torgersen
 4 Adelie                 NA Torgersen
 5 Adelie                193 Torgersen
 6 Adelie                190 Torgersen
 7 Adelie                181 Torgersen
 8 Adelie                195 Torgersen
 9 Adelie                193 Torgersen
10 Adelie                190 Torgersen
# ℹ 334 more rows

penguins |>
  select(home_island = island) # select and rename

# A tibble: 344 × 1
   home_island
   <fct>      
 1 Torgersen  
 2 Torgersen  
 3 Torgersen  
 4 Torgersen  
 5 Torgersen  
 6 Torgersen  
 7 Torgersen  
 8 Torgersen  
 9 Torgersen  
10 Torgersen  
# ℹ 334 more rows

A note here: the penguins object that we’re working with is technically called a tibble. dplyr is specifically adapted to work with tibbles, and many of the functions won’t work properly on other kinds of data structure. The main idea underlying dplyr is that the many functions it contains should all work consistently, and work well together. So once you’ve got the hang of select there’s not much new to say about filter, which picks rows based on their values:

penguins |>
  filter(species == "Adelie") # find some rows about Adelie penguins

# A tibble: 152 × 8
   species island    bill_length_mm bill_depth_mm flipper_length_mm body_mass_g
   <fct>   <fct>              <dbl>         <dbl>             <int>       <int>
 1 Adelie  Torgersen           39.1          18.7               181        3750
 2 Adelie  Torgersen           39.5          17.4               186        3800
 3 Adelie  Torgersen           40.3          18                 195        3250
 4 Adelie  Torgersen           NA            NA                  NA          NA
 5 Adelie  Torgersen           36.7          19.3               193        3450
 6 Adelie  Torgersen           39.3          20.6               190        3650
 7 Adelie  Torgersen           38.9          17.8               181        3625
 8 Adelie  Torgersen           39.2          19.6               195        4675
 9 Adelie  Torgersen           34.1          18.1               193        3475
10 Adelie  Torgersen           42            20.2               190        4250
# ℹ 142 more rows
# ℹ 2 more variables: sex <fct>, year <int>
…
# A tibble: 2 × 8
  species island    bill_length_mm bill_depth_mm flipper_length_mm body_mass_g
  <fct>   <fct>              <dbl>         <dbl>             <int>       <int>
1 Adelie  Torgersen             NA            NA                NA          NA
2 Gentoo  Biscoe                NA            NA                NA          NA
# ℹ 2 more variables: sex <fct>, year <int>

And mutate - which makes new columns - will work in the same way:

penguins |>
  mutate(new_col = 11) |> # every row the same
  select(species, new_col) # so that we can see the new values in the preview

# A tibble: 344 × 2
   species new_col
   <fct>     <dbl>
 1 Adelie       11
 2 Adelie       11
 3 Adelie       11
 4 Adelie       11
 5 Adelie       11
 6 Adelie       11
 7 Adelie       11
 8 Adelie       11
 9 Adelie       11
10 Adelie       11
# ℹ 334 more rows

penguins |>
  mutate(bill_vol = bill_length_mm * bill_depth_mm^2) |> # some calculation
  select(species, bill_vol)

# A tibble: 344 × 2
   species bill_vol
   <fct>      <dbl>
 1 Adelie    13673.
 2 Adelie    11959.
 3 Adelie    13057.
 4 Adelie       NA 
 5 Adelie    13670.
 6 Adelie    16677.
 7 Adelie    12325.
 8 Adelie    15059.
 9 Adelie    11172.
10 Adelie    17138.
# ℹ 334 more rows

penguins |>
  mutate(label = paste("From", island, "island, a penguin of the species", species)) |>
  select(label, body_mass_g) # mutate and then select. You can use your new columns immediately.

# A tibble: 344 × 2
   label                                                  body_mass_g
   <chr>                                                        <int>
 1 From Torgersen island, a penguin of the species Adelie        3750
 2 From Torgersen island, a penguin of the species Adelie        3800
 3 From Torgersen island, a penguin of the species Adelie        3250
 4 From Torgersen island, a penguin of the species Adelie          NA
 5 From Torgersen island, a penguin of the species Adelie        3450
 6 From Torgersen island, a penguin of the species Adelie        3650
 7 From Torgersen island, a penguin of the species Adelie        3625
 8 From Torgersen island, a penguin of the species Adelie        4675
 9 From Torgersen island, a penguin of the species Adelie        3475
10 From Torgersen island, a penguin of the species Adelie        4250
# ℹ 334 more rows

As before, we need to assign with <- to save our changes. Let’s add the bill_vol column to the data now

penguins_vol <- penguins |>
  mutate(bill_vol = bill_length_mm * bill_depth_mm^2)

arrange sorts columns:

penguins_vol |>
  arrange(bill_vol)

# A tibble: 344 × 9
   species island bill_length_mm bill_depth_mm flipper_length_mm body_mass_g
   <fct>   <fct>           <dbl>         <dbl>             <int>       <int>
 1 Gentoo  Biscoe           42.9          13.1               215        5000
 2 Gentoo  Biscoe           42            13.5               210        4150
 3 Gentoo  Biscoe           40.9          13.7               214        4650
 4 Adelie  Dream            32.1          15.5               188        3050
 5 Gentoo  Biscoe           43.3          13.4               209        4400
 6 Gentoo  Biscoe           44.9          13.3               213        5100
 7 Gentoo  Biscoe           42.6          13.7               213        4950
 8 Gentoo  Biscoe           42.7          13.7               208        3950
 9 Gentoo  Biscoe           46.1          13.2               211        4500
10 Gentoo  Biscoe           44            13.6               208        4350
# ℹ 334 more rows
# ℹ 3 more variables: sex <fct>, year <int>, bill_vol <dbl>
…
ggplot objects are lists:

class(peng_plot)

[1] "gg"     "ggplot"

typeof(peng_plot)

[1] "list"

Interestingly, the plot object contains the full data used to build the plot:

peng_plot$data # your original data

# A tibble: 344 × 8
   species island    bill_length_mm bill_depth_mm flipper_length_mm body_mass_g
   <fct>   <fct>              <dbl>         <dbl>             <int>       <int>
 1 Adelie  Torgersen           39.1          18.7               181        3750
 2 Adelie  Torgersen           39.5          17.4               186        3800
 3 Adelie  Torgersen           40.3          18                 195        3250
 4 Adelie  Torgersen           NA            NA                  NA          NA
 5 Adelie  Torgersen           36.7          19.3               193        3450
 6 Adelie  Torgersen           39.3          20.6               190        3650
 7 Adelie  Torgersen           38.9          17.8               181        3625
 8 Adelie  Torgersen           39.2          19.6               195        4675
 9 Adelie  Torgersen           34.1          18.1               193        3475
10 Adelie  Torgersen           42            20.2               190        4250
# ℹ 334 more rows
# ℹ 2 more variables: sex <fct>, year <int>
…
