We ❤️ janitor – KIND training pages
…
clean_names again

Data1_clean <- Data1 |>
  clean_names() |>
  mutate(across(contains("date"),
         excel_numeric_to_date)) |>
  mutate(Year = lubridate::year(date_of_event_1))

Data1_clean

# A tibble: 503 × 8
       id gender date_of_event_1 date_of_event_2 location diagnosis_code_1
    <dbl> <chr>  <date>          <date>          <chr>    <chr>           
 1 100507 Male   2022-01-11      2021-12-05      Hospital T848            
 2 104088 Male   2021-01-20      2020-09-15      Hospital G992            
 3 105279 Female 2020-12-07      2023-11-09      Hospital J81X            
 4 105459 Male   2021-10-27      2020-02-11      Home     R55X            
 5 108894 Male   2023-02-16      2023-11-09      Home     J459            
 6 109204 Male   2023-06-22      2021-02-09      Home     K851            
 7 109624 Male   2021-06-03      2023-02-24      Home     J441            
 8 111454 Male   2022-04-11      2020-02-07      Home     E162            
 9 113892 Male   2020-04-26      2023-03-06      Home     I279            
10 114110 Male   2021-04-04      2021-05-06      Hospital M798            
# ℹ 493 more rows
# ℹ 2 more variables: attendances <dbl>, Year <dbl>
…
distinct

Data1_clean_distinct <- distinct(Data1_clean)

Data1_clean_distinct

# A tibble: 500 × 8
       id gender date_of_event_1 date_of_event_2 location diagnosis_code_1
    <dbl> <chr>  <date>          <date>          <chr>    <chr>           
 1 100507 Male   2022-01-11      2021-12-05      Hospital T848            
 2 104088 Male   2021-01-20      2020-09-15      Hospital G992            
 3 105279 Female 2020-12-07      2023-11-09      Hospital J81X            
 4 105459 Male   2021-10-27      2020-02-11      Home     R55X            
 5 108894 Male   2023-02-16      2023-11-09      Home     J459            
 6 109204 Male   2023-06-22      2021-02-09      Home     K851            
 7 109624 Male   2021-06-03      2023-02-24      Home     J441            
 8 111454 Male   2022-04-11      2020-02-07      Home     E162            
 9 113892 Male   2020-04-26      2023-03-06      Home     I279            
10 114110 Male   2021-04-04      2021-05-06      Hospital M798            
# ℹ 490 more rows
# ℹ 2 more variables: attendances <dbl>, Year <dbl>
…
